<?xml version="1.0" standalone="no"?>
<!DOCTYPE svg PUBLIC "-//W3C//DTD SVG 1.1//EN" "http://www.w3.org/Graphics/SVG/1.1/DTD/svg11.dtd" >
<svg xmlns="http://www.w3.org/2000/svg">
<metadata>Generated by IcoMoon</metadata>
<defs>
<font id="icomoon" horiz-adv-x="1024">
<font-face units-per-em="1024" ascent="960" descent="-64" />
<missing-glyph horiz-adv-x="1024" />
<glyph unicode="&#x20;" horiz-adv-x="512" d="" />
<glyph unicode="&#xe900;" glyph-name="google-plus" d="M559.066 896c0 0-200.956 0-267.94 0-120.12 0-233.17-91.006-233.17-196.422 0-107.726 81.882-194.666 204.088-194.666 8.498 0 16.756 0.17 24.842 0.752-7.93-15.186-13.602-32.288-13.602-50.042 0-29.938 16.104-54.21 36.468-74.024-15.386 0-30.242-0.448-46.452-0.448-148.782 0.002-263.3-94.758-263.3-193.020 0-96.778 125.542-157.314 274.334-157.314 169.624 0 263.306 96.244 263.306 193.028 0 77.6-22.896 124.072-93.686 174.134-24.216 17.144-70.53 58.836-70.53 83.344 0 28.72 8.196 42.868 51.428 76.646 44.312 34.624 75.672 83.302 75.672 139.916 0 67.406-30.020 133.098-86.372 154.772h84.954l59.96 43.344zM465.48 240.542c2.126-8.972 3.284-18.206 3.284-27.628 0-78.2-50.392-139.31-194.974-139.31-102.842 0-177.116 65.104-177.116 143.3 0 76.642 92.126 140.444 194.964 139.332 24-0.254 46.368-4.116 66.67-10.69 55.826-38.826 95.876-60.762 107.172-105.004zM300.818 532.224c-69.038 2.064-134.636 77.226-146.552 167.86-11.916 90.666 34.37 160.042 103.388 157.99 69.010-2.074 134.638-74.814 146.558-165.458 11.906-90.66-34.39-162.458-103.394-160.392zM832 704v192h-64v-192h-192v-64h192v-192h64v192h192v64z" />
<glyph unicode="&#xe901;" glyph-name="facebook" d="M672 768c-88.366 0-160-71.634-160-160v-96h-128v-128h128v-448h128v448h144l32 128h-176v96c0 17.672 14.326 32 32 32h160v128h-160z" />
<glyph unicode="&#xe902;" glyph-name="instagram" d="M854 960h-684c-93.5 0-170-76.5-170-170v-684c0-93.5 76.5-170 170-170h684c93.5 0 170 76.5 170 170v684c0 93.5-76.5 170-170 170zM327.8 512h368.4c6.988-20.058 10.8-41.59 10.8-64 0-107.524-87.476-195-195-195s-195 87.476-195 195c0 22.41 3.812 43.942 10.8 64zM896 511.95v-383.95c0-35.2-28.8-64-64-64h-640c-35.2 0-64 28.8-64 64v384h100.108c-4.642-20.602-7.108-42.016-7.108-64 0-160.458 130.542-291 291-291s291 130.542 291 291c0 21.984-2.464 43.398-7.108 64l100.108-0.050zM896 736c0-17.6-14.4-32-32-32h-64c-17.6 0-32 14.4-32 32v64c0 17.6 14.4 32 32 32h64c17.6 0 32-14.4 32-32v-64z" />
<glyph unicode="&#xe903;" glyph-name="twitter" d="M1024 765.582c-37.676-16.708-78.164-28.002-120.66-33.080 43.372 26 76.686 67.17 92.372 116.23-40.596-24.078-85.556-41.56-133.41-50.98-38.32 40.83-92.922 66.34-153.346 66.34-116.022 0-210.088-94.058-210.088-210.078 0-16.466 1.858-32.5 5.44-47.878-174.6 8.764-329.402 92.4-433.018 219.506-18.084-31.028-28.446-67.116-28.446-105.618 0-72.888 37.088-137.192 93.46-174.866-34.438 1.092-66.832 10.542-95.154 26.278-0.020-0.876-0.020-1.756-0.020-2.642 0-101.788 72.418-186.696 168.522-206-17.626-4.8-36.188-7.372-55.348-7.372-13.538 0-26.698 1.32-39.528 3.772 26.736-83.46 104.32-144.206 196.252-145.896-71.9-56.35-162.486-89.934-260.916-89.934-16.958 0-33.68 0.994-50.116 2.94 92.972-59.61 203.402-94.394 322.042-94.394 386.422 0 597.736 320.124 597.736 597.744 0 9.108-0.206 18.168-0.61 27.18 41.056 29.62 76.672 66.62 104.836 108.748z" />
<glyph unicode="&#xe904;" glyph-name="home" d="M999.916 585.888l-444.722 313.918c-9.584 6.777-21.056 10.416-32.805 10.416h-20.779c-11.749 0-23.221-3.639-32.805-10.416l-444.722-313.918c-15.111-10.638-24.084-27.972-24.084-46.471v-482.528c0-31.417 25.472-56.889 56.889-56.889h910.222c31.417 0 56.889 25.472 56.889 56.889v482.528c0 18.5-8.972 35.833-24.084 46.471zM910.222 142.222c0-15.723-12.722-28.444-28.444-28.444h-426.667v312.889c0 15.723-12.722 28.444-28.444 28.444h-170.667c-15.723 0-28.444-12.722-28.444-28.444v-312.889h-85.333c-15.723 0-28.444 12.722-28.444 28.444v352.972c0 9.25 4.5 17.916 12.028 23.25l386.194 272.583 386.167-272.583c7.556-5.333 12.055-14 12.055-23.25v-352.972zM768 455.111h-170.667c-15.723 0-28.444-12.722-28.444-28.444v-56.889c0-15.723 12.722-28.444 28.444-28.444h170.667c15.723 0 28.444 12.722 28.444 28.444v56.889c0 15.723-12.722 28.444-28.444 28.444z" />
<glyph unicode="&#xe905;" glyph-name="key" d="M704 960c-176.73 0-320-143.268-320-320 0-20.026 1.858-39.616 5.376-58.624l-389.376-389.376v-192c0-35.346 28.654-64 64-64h64v64h128v128h128v128h128l83.042 83.042c34.010-12.316 70.696-19.042 108.958-19.042 176.73 0 320 143.268 320 320s-143.27 320-320 320zM799.874 639.874c-53.020 0-96 42.98-96 96s42.98 96 96 96 96-42.98 96-96-42.98-96-96-96z" />
<glyph unicode="&#xe906;" glyph-name="lock" d="M592 512h-16v192c0 105.87-86.13 192-192 192h-128c-105.87 0-192-86.13-192-192v-192h-16c-26.4 0-48-21.6-48-48v-480c0-26.4 21.6-48 48-48h544c26.4 0 48 21.6 48 48v480c0 26.4-21.6 48-48 48zM192 704c0 35.29 28.71 64 64 64h128c35.29 0 64-28.71 64-64v-192h-256v192z" />
<glyph unicode="&#xe907;" glyph-name="stats-dots" d="M128 64h896v-128h-1024v1024h128zM288 128c-53.020 0-96 42.98-96 96s42.98 96 96 96c2.828 0 5.622-0.148 8.388-0.386l103.192 171.986c-9.84 15.070-15.58 33.062-15.58 52.402 0 53.020 42.98 96 96 96s96-42.98 96-96c0-19.342-5.74-37.332-15.58-52.402l103.192-171.986c2.766 0.238 5.56 0.386 8.388 0.386 2.136 0 4.248-0.094 6.35-0.23l170.356 298.122c-10.536 15.408-16.706 34.036-16.706 54.11 0 53.020 42.98 96 96 96s96-42.98 96-96c0-53.020-42.98-96-96-96-2.14 0-4.248 0.094-6.35 0.232l-170.356-298.124c10.536-15.406 16.706-34.036 16.706-54.11 0-53.020-42.98-96-96-96s-96 42.98-96 96c0 19.34 5.74 37.332 15.578 52.402l-103.19 171.984c-2.766-0.238-5.56-0.386-8.388-0.386s-5.622 0.146-8.388 0.386l-103.192-171.986c9.84-15.068 15.58-33.060 15.58-52.4 0-53.020-42.98-96-96-96z" />
<glyph unicode="&#xe908;" glyph-name="skype" d="M975.31 382.062c2.812 20.8 4.43 41.946 4.43 63.472 0 258.31-210.542 467.744-470.206 467.744-25.808 0-51.11-2.12-75.732-6.16-44.144 28.768-96.684 45.534-153.224 45.534-155.046 0-280.578-125.616-280.578-280.612 0-56.396 16.598-108.788 45.18-152.778-3.85-24.034-5.818-48.646-5.818-73.718 0-258.352 210.434-467.764 470.17-467.764 29.314 0 57.854 2.854 85.592 7.866 43.1-26.738 93.868-42.296 148.292-42.296 155.004-0.002 280.584 125.646 280.584 280.626-0.006 58.586-17.92 113.056-48.69 158.086zM553.48 100.808c-149.41-7.784-219.328 25.274-283.378 85.382-71.53 67.134-42.796 143.708 15.48 147.602 58.244 3.888 93.214-66.026 124.3-85.472 31.048-19.376 149.188-63.52 211.588 7.816 67.952 77.656-45.188 117.84-128.118 130.004-118.406 17.532-267.9 81.584-256.27 207.814 11.632 126.148 107.164 190.828 207.7 199.952 128.154 11.634 211.582-19.414 277.57-75.72 76.3-65.058 35.016-137.788-13.598-143.64-48.424-5.818-102.808 107.008-209.582 108.704-110.054 1.728-184.434-114.522-48.572-147.568 135.932-33.010 281.5-46.572 333.922-170.834 52.458-124.274-81.508-256.25-231.042-264.040z" />
<glyph unicode="&#xe909;" glyph-name="rocket" d="M747.872 15.072c0 0 10.72 64.384-55.392 143.008 64.352 180.512 73.28 344.896 73.28 344.896s132.256-30.4 132.256-160.832c-0.032-223.392-150.144-327.072-150.144-327.072zM383.328 93.504c0 0-88.576 284.256-88.576 402.176 0 53.056 5.984 100.256 15.296 143.104h403.52c9.376-42.88 15.392-90.112 15.392-143.136 0-116.128-88.32-402.144-88.32-402.144h-257.312zM511.68 573.792c-45.376 0-82.176-36.8-82.176-82.208 0-45.376 36.8-82.208 82.176-82.208 45.408 0 82.208 36.8 82.208 82.208 0.032 45.408-36.8 82.208-82.208 82.208zM494.016 940.928v111.936h32v-109.088c36.576-26.624 135.552-111.296 180.32-274.4h-389.12c43.264 158.624 137.472 242.368 176.8 271.552zM276.128 15.072c0 0-150.112 103.68-150.112 327.072 0 130.432 132.256 160.832 132.256 160.832s8.928-164.384 73.248-344.896c-66.144-78.656-55.392-143.008-55.392-143.008zM566.112-1.44l-26.816 26.816-28.576-89.376-33.984 89.376-23.232-46.432-33.984 84h184.064l-37.472-64.384z" />
<glyph unicode="&#xe90a;" glyph-name="dollar" d="M0 160v576h1024v-576h-1024zM64 673.984v-449.984h896v449.984h-896zM672 448c0 106.016-71.616 192-160 192h416v-384h-416c88.384 0 160 85.984 160 192zM800 384c26.496 0 48 28.672 48 64s-21.504 64-48 64-48-28.672-48-64 21.504-64 48-64zM579.776 528.704c-0.48-1.76-1.152-3.008-1.984-3.808-0.864-0.8-2.016-1.184-3.488-1.184s-3.776 0.896-7.008 2.752c-3.2 1.888-7.136 3.872-11.776 6.048-4.672 2.176-10.048 4.16-16.192 5.984-6.144 1.792-12.864 2.656-20.192 2.656-5.76 0-10.752-0.672-15.008-2.080-4.256-1.376-7.84-3.328-10.688-5.76-2.88-2.464-4.992-5.44-6.4-8.864-1.376-3.424-2.080-7.104-2.080-10.944 0-5.76 1.568-10.72 4.704-14.912s7.328-7.936 12.608-11.2c5.28-3.296 11.232-6.336 17.92-9.184 6.624-2.88 13.44-5.92 20.384-9.088 6.944-3.232 13.728-6.848 20.384-10.912 6.688-4.064 12.64-8.928 17.824-14.592s9.376-12.32 12.608-19.968c3.2-7.68 4.768-16.672 4.768-27.104 0-13.6-2.496-25.504-7.552-35.776-5.088-10.24-11.936-18.816-20.64-25.664-8.672-6.88-18.784-12.032-30.368-15.488-1.472-0.448-3.072-0.64-4.576-0.992v-34.944h-31.456v30.816c-0.416 0-0.768-0.064-1.152-0.064-8.928 0-17.248 0.704-24.896 2.144-7.68 1.472-14.432 3.232-20.288 5.248-5.888 2.048-10.752 4.192-14.688 6.432s-6.752 4.224-8.48 5.952c-1.728 1.728-2.976 4.224-3.712 7.488-0.736 3.296-1.12 7.968-1.12 14.112 0 4.128 0.128 7.584 0.416 10.4s0.704 5.056 1.312 6.816 1.376 2.976 2.4 3.712c0.992 0.704 2.144 1.088 3.488 1.088 1.856 0 4.48-1.088 7.904-3.296 3.392-2.208 7.776-4.64 13.088-7.296 5.344-2.688 11.68-5.088 19.104-7.328 7.392-2.176 15.968-3.296 25.696-3.296 6.4 0 12.128 0.768 17.184 2.304s9.376 3.68 12.896 6.496 6.208 6.272 8.096 10.4c1.888 4.16 2.816 8.736 2.816 13.856 0 5.856-1.632 10.88-4.8 15.104-3.2 4.192-7.36 7.904-12.512 11.2-5.12 3.264-10.944 6.304-17.472 9.184s-13.248 5.92-20.192 9.088c-6.912 3.2-13.664 6.816-20.192 10.912-6.528 4.064-12.352 8.896-17.472 14.56s-9.312 12.384-12.48 20.096c-3.2 7.712-4.8 16.992-4.8 27.776 0 12.416 2.304 23.296 6.88 32.672 4.608 9.376 10.784 17.184 18.592 23.36s16.992 10.816 27.584 13.888c5.44 1.6 11.072 2.72 16.832 3.488v33.088h31.456v-33.088c1.248-0.16 2.496-0.096 3.744-0.288 6.112-0.928 11.872-2.176 17.184-3.776 5.344-1.568 10.048-3.328 14.208-5.344 4.128-1.984 6.848-3.616 8.192-4.96 1.344-1.312 2.208-2.432 2.72-3.36 0.448-0.928 0.832-2.176 1.184-3.712 0.32-1.536 0.576-3.456 0.672-5.824 0.128-2.304 0.192-5.216 0.192-8.672 0-3.872-0.096-7.168-0.288-9.856-0.288-2.528-0.608-4.768-1.088-6.496zM352 448c0-106.016 71.616-192 160-192h-416v384h416c-88.384 0-160-85.984-160-192zM224 512c-26.528 0-48-28.672-48-64s21.472-64 48-64c26.496 0 48 28.672 48 64s-21.504 64-48 64z" />
<glyph unicode="&#xe90b;" glyph-name="stats-bars2" d="M288 576h-192c-17.6 0-32-14.4-32-32v-576c0-17.6 14.4-32 32-32h192c17.6 0 32 14.4 32 32v576c0 17.6-14.4 32-32 32zM288 0h-192v256h192v-256zM608 704h-192c-17.6 0-32-14.4-32-32v-704c0-17.6 14.4-32 32-32h192c17.6 0 32 14.4 32 32v704c0 17.6-14.4 32-32 32zM608 0h-192v320h192v-320zM928 832h-192c-17.6 0-32-14.4-32-32v-832c0-17.6 14.4-32 32-32h192c17.6 0 32 14.4 32 32v832c0 17.6-14.4 32-32 32zM928 0h-192v384h192v-384z" />
<glyph unicode="&#xe90c;" glyph-name="star-empty" d="M1024 562.95l-353.78 51.408-158.22 320.582-158.216-320.582-353.784-51.408 256-249.538-60.432-352.352 316.432 166.358 316.432-166.358-60.434 352.352 256.002 249.538zM512 206.502l-223.462-117.48 42.676 248.83-180.786 176.222 249.84 36.304 111.732 226.396 111.736-226.396 249.836-36.304-180.788-176.222 42.678-248.83-223.462 117.48z" />
<glyph unicode="&#xe90d;" glyph-name="vk" d="M911.462 343.142c0 0 82.79-81.766 103.27-119.603 0.563-0.819 0.819-1.434 0.922-1.792 8.346-13.978 10.394-24.934 6.298-33.024-6.912-13.363-30.31-20.070-38.246-20.634 0 0-142.234 0-146.33 0-10.189 0-31.386 2.662-57.19 20.48-19.712 13.773-39.322 36.454-58.317 58.624-28.365 32.922-52.89 61.491-77.722 61.491-3.174 0-6.246-0.512-9.216-1.536-18.79-5.939-42.65-32.717-42.65-104.038 0-22.323-17.613-35.021-29.952-35.021 0 0-63.898 0-67.021 0-22.835 0-141.722 7.987-247.142 119.142-129.178 136.090-245.197 409.088-246.323 411.494-7.219 17.664 7.936 27.29 24.32 27.29h147.763c19.814 0 26.266-11.981 30.771-22.733 5.222-12.339 24.576-61.696 56.32-117.146 51.405-90.214 82.995-126.925 108.237-126.925 4.762 0 9.267 1.178 13.517 3.584 32.973 18.125 26.829 135.885 25.293 160.154 0 4.71-0.051 52.582-16.947 75.725-12.083 16.589-32.666 23.040-45.107 25.395 3.328 4.813 10.394 12.186 19.456 16.538 22.579 11.264 63.386 12.902 103.885 12.902h22.477c43.93-0.614 55.296-3.43 71.27-7.475 32.154-7.68 32.768-28.518 29.952-99.482-0.819-20.275-1.69-43.11-1.69-69.99 0-5.734-0.256-12.134-0.256-18.637-0.973-36.403-2.253-77.414 23.45-94.259 3.277-2.048 7.117-3.174 11.11-3.174 8.909 0 35.584 0 107.93 124.16 31.744 54.835 56.32 119.501 58.010 124.365 1.434 2.714 5.734 10.342 10.957 13.414 3.994 2.458 9.318 2.867 12.083 2.867h173.824c18.944 0 31.795-2.867 34.304-10.035 4.198-11.622-0.819-47.104-80.179-154.419-13.363-17.869-25.088-33.331-35.379-46.848-71.936-94.413-71.936-99.174 4.25-170.854z" />
<glyph unicode="&#xe90e;" glyph-name="mobile" d="M736 960h-448c-52.8 0-96-43.2-96-96v-832c0-52.8 43.2-96 96-96h448c52.8 0 96 43.2 96 96v832c0 52.8-43.2 96-96 96zM384 912h256v-32h-256v32zM512 0c-35.346 0-64 28.654-64 64s28.654 64 64 64 64-28.654 64-64-28.654-64-64-64zM768 192h-512v640h512v-640z" />
<glyph unicode="&#xe90f;" glyph-name="quotes-left" d="M225 512c123.712 0 224-100.29 224-224 0-123.712-100.288-224-224-224s-224 100.288-224 224l-1 32c0 247.424 200.576 448 448 448v-128c-85.474 0-165.834-33.286-226.274-93.726-11.634-11.636-22.252-24.016-31.83-37.020 11.438 1.8 23.16 2.746 35.104 2.746zM801 512c123.71 0 224-100.29 224-224 0-123.712-100.29-224-224-224s-224 100.288-224 224l-1 32c0 247.424 200.576 448 448 448v-128c-85.474 0-165.834-33.286-226.274-93.726-11.636-11.636-22.254-24.016-31.832-37.020 11.44 1.8 23.16 2.746 35.106 2.746z" />
<glyph unicode="&#xe910;" glyph-name="quotes-right" d="M800 320c-123.712 0-224 100.29-224 224 0 123.712 100.288 224 224 224s224-100.288 224-224l1-32c0-247.424-200.576-448-448-448v128c85.474 0 165.834 33.286 226.274 93.726 11.634 11.636 22.252 24.016 31.83 37.020-11.438-1.8-23.16-2.746-35.104-2.746zM224 320c-123.71 0-224 100.29-224 224 0 123.712 100.29 224 224 224s224-100.288 224-224l1-32c0-247.424-200.576-448-448-448v128c85.474 0 165.834 33.286 226.274 93.726 11.636 11.636 22.254 24.016 31.832 37.020-11.44-1.8-23.16-2.746-35.106-2.746z" />
<glyph unicode="&#xe911;" glyph-name="mail" d="M896 800h-768c-70.688 0-128-57.344-128-128v-416c0-70.688 57.312-128 128-128h768c70.688 0 128 57.312 128 128v416c0 70.656-57.312 128-128 128zM64 632l223.968-168-223.968-168v336zM960 256c0-35.328-28.736-64-64-64h-768c-35.296 0-64 28.672-64 64l250.624 188 139.776-104.864c17.056-12.736 37.312-19.2 57.6-19.2 20.256 0 40.512 6.432 57.568 19.2l139.808 104.864 250.624-188zM960 296l-224 168 224 168v-336zM550.368 364.736c-11.168-8.384-24.416-12.8-38.368-12.8s-27.232 4.448-38.4 12.8l-409.6 307.264c0 35.296 28.704 64 64 64h768c35.264 0 64-28.704 64-64l-409.632-307.264z" />
<glyph unicode="&#xe912;" glyph-name="shield" d="M960 960l-448-128-448 128c0 0-4.5-51.698 0-128l448-140.090 448 140.090c4.498 76.302 0 128 0 128zM72.19 764.894c23.986-250.696 113.49-672.234 439.81-828.894 326.32 156.66 415.824 578.198 439.81 828.894l-439.81-165.358-439.81 165.358z" />
<glyph unicode="&#xe913;" glyph-name="profile" d="M896 672h-62.656v94.016l-129.344 1.984 0.672-96h-388.672l2.656 96-126.656-1.984v-96l-64 1.984c-35.328 0-64-28.672-64-64v-448c0-35.328 28.672-64 64-64h768c35.328 0 64 28.672 64 64v448c0 35.328-28.672 64-64 64zM736 736h64v-128h-64v128zM320 518.016c38.656 0 70.016-41.184 70.016-92s-31.36-92-70.016-92-70.016 41.184-70.016 92 31.36 92 70.016 92zM224 736h64v-128h-64v128zM181.344 225.664c0 0 7.584 60.864 24.832 72.352 17.216 11.488 66.88 19.136 66.88 19.136s32.192-34.4 45.888-34.4c13.664 0 45.856 34.4 45.856 34.4s49.664-7.616 66.912-19.136c20.256-13.504 25.312-72.352 25.312-72.352h-275.68zM832 256h-288v32h288v-32zM832 320h-288v32h288v-32zM832 384h-288v32h288v-32zM832 448h-288v32h288v-32z" />
<glyph unicode="&#xe914;" glyph-name="log-out" d="M972.8 460.8l-307.2 256v-153.6h-358.4v-204.8h358.4v-153.6l307.2 256zM153.6 819.2h409.6v102.4h-409.6c-56.32 0-102.4-46.080-102.4-102.4v-716.8c0-56.32 46.080-102.4 102.4-102.4h409.6v102.4h-409.6v716.8z" />
<glyph unicode="&#xe915;" glyph-name="safe" d="M864 32l-63.968 1.984v-65.984h-96v64h-382.016l-1.984-64h-96v62.016l-64.032 1.984c-35.328 0-64 28.672-64 64v768c0 35.328 28.672 64 64 64h704c35.328 0 64-28.672 64-64v-768c0-35.328-28.672-64-64-64zM832 832h-640v-126.656l-31.328 0.64v-98.656h31.328v-253.344h-32v-97.984h32v-128h640v704zM800 160h-576v96h32v97.984h-32v254.016h32l0.672 97.344h-32.672v94.656h576v-640zM465.984 622.016c-70.688 0-128-57.312-128-128s57.312-128 128-128c70.72 0 128 57.312 128 128s-57.28 128-128 128zM752 591.424c0 17.696-14.304 32-32 32-17.664 0-32-14.304-32-32 0-11.712 6.624-21.536 16-27.104v-169.248c-9.376-5.568-16-15.36-16-27.104 0-17.664 14.336-32 32-32 17.696 0 32 14.336 32 32 0 12.608-7.424 23.232-17.984 28.448v166.56c10.56 5.248 17.984 15.872 17.984 28.448zM464 440c-26.496 0-48 21.504-48 48 0 26.528 21.504 48 48 48 26.528 0 48-21.472 48-48 0-26.496-21.472-48-48-48z" />
<glyph unicode="&#xe916;" glyph-name="megaphone" d="M800 960c-65.696 0-117.312-45.12-154.368-114.752l-0.672 0.384c-53.824-105.376-133.952-173.632-221.728-173.632h-295.232c-71.776 0-128-70.304-128-160 0-89.76 56.224-160 128-160 35.296-0.128 63.84-28.672 63.84-64v-288c0-35.36 28.672-64 64-64h128c35.328 0 64 28.64 64 64v32c0 32-32 46.304-32 64v224c0 0.736 0.512 1.248 0.576 1.984 0.32 4.576 1.568 8.8 3.584 12.64 0.576 1.056 1.184 1.888 1.888 2.816 2.56 3.808 5.792 6.944 9.728 9.376 0.192 0.128 0.256 0.32 0.448 0.448 0.128 0 0.224 0.128 0.352 0.128 2.56 1.44 5.632 1.76 8.512 2.56 80.768-8.576 153.888-73.76 204.064-171.936l0.8 0.384c37.088-69.408 88.576-114.4 154.208-114.4 147.072 0 224 225.376 224 448s-76.928 448-224 448zM640 512c0 33.184 1.952 65.248 5.248 96h90.752c35.328 0 64-43.008 64-96 0-53.056-28.672-96-64-96h-90.752c-3.296 30.752-5.248 62.752-5.248 96zM64 512c0 52.992 28.672 96 64 96h224.448c-19.84-23.328-32.448-57.184-32.448-96 0-38.88 12.608-72.736 32.448-96h-224.448c-35.328 0-64 42.944-64 96zM383.84 0h-128v288c0 23.328-6.24 45.12-17.184 64h22.336v-0.384h96.256c-3.424-9.952-5.408-20.512-5.408-31.616v-224c0-30.816 17.216-51.328 27.488-63.552 1.408-1.696 3.072-3.424 4.512-5.312v-27.136zM423.232 415.616h-7.232v0.384c-35.328 0-64 42.944-64 96 0 52.992 28.672 96 64 96h7.232c60.352 0 116.864 23.744 166.592 64.576-9.152-51.52-13.824-106.080-13.824-160.576 0-54.688 4.672-109.44 13.888-160.992-49.76 40.864-106.304 64.608-166.656 64.608zM800 128c-64.576 0-120 91.872-145.312 224h81.312c71.744 0 128 70.24 128 160 0 89.696-56.256 160-128 160h-81.312c25.312 132.064 80.736 224 145.312 224 88.384 0 160-171.936 160-384s-71.616-384-160-384z" />
<glyph unicode="&#xe917;" glyph-name="ticket" d="M575.996 640l127.998-127.998-255.994-255.994-127.998 127.998zM1001.526 662.496l-73.516 73.516-32.008-32.008c-16.378-16.38-39.010-26.51-64-26.51-49.988 0-90.514 40.522-90.514 90.51 0 25.002 10.14 47.638 26.534 64.018l31.988 31.986-73.518 73.516c-29.968 29.968-79.008 29.968-108.976 0l-595.040-595.038c-29.966-29.968-29.966-79.010 0-108.976l73.52-73.518 31.962 31.964c16.382 16.406 39.030 26.552 64.044 26.552 49.988 0 90.51-40.524 90.51-90.51 0-25.006-10.14-47.64-26.534-64.022l-31.984-31.986 73.516-73.518c29.966-29.966 79.008-29.966 108.976 0l595.040 595.040c29.964 29.976 29.964 79.016 0 108.984zM448.002 128.004l-256 256 384 384 256-256-384-384z" />
<glyph unicode="&#xe918;" glyph-name="user-tie" d="M320 768c0 106.039 85.961 192 192 192s192-85.961 192-192c0-106.039-85.961-192-192-192s-192 85.961-192 192zM768.078 512h-35.424l-199.104-404.244 74.45 372.244-96 96-96-96 74.45-372.244-199.102 404.244h-35.424c-127.924 0-127.924-85.986-127.924-192v-320h768v320c0 106.014 0 192-127.922 192z" />
<glyph unicode="&#xe919;" glyph-name="chronometer" d="M897.728 365.728c0-221.856-179.84-401.728-401.728-401.728-221.856 0-401.728 179.872-401.728 401.728 0 215.104 169.152 390.144 381.664 400.672v69.312h-30.112c-17.76 0-32.16 14.4-32.16 32.16s14.4 32.128 32.16 32.128h96.384c17.76 0 32.16-14.368 32.16-32.128s-14.4-32.16-32.16-32.16h-34.112v-68.896c216.224-6.4 389.632-183.328 389.632-401.088zM475.936 642.912v73.312c-99.488-5.632-187.712-52.48-248.512-123.456l52.896-52.896-22.72-22.752-50.080 50.112c-40.768-57.536-65.024-127.584-65.024-203.488 0-3.392 0.48-8.032 0.48-8.032h77.824v-32.16h-75.52c7.808-65.664 33.824-127.584 72.576-177.088l39.776 39.776 22.72-22.72-41.472-41.504c60.128-63.872 143.616-105.504 237.056-110.784v87.328h32.128v-87.744c95.648 3.264 181.44 44.576 243.168 109.12l-45.568 45.568 22.72 22.72 44.064-44.032c39.68 49.92 66.368 112.672 74.304 179.328h-81.6v32.16h83.872c0.096 3.328 0.512 4.64 0.512 8.032 0 78.016-25.6 149.792-68.416 208.16l-52.736-52.736-22.72 22.72 55.232 55.2c-62.304 70.496-152.096 116.192-252.8 119.584v-73.728h-32.16zM510.048 355.68h112.512c8.864 0 16.064-7.232 16.064-16.064 0-8.864-7.2-16.096-16.064-16.096h-128.576c-8.864 0-16.064 7.232-16.064 16.096v222.944c0 8.864 7.2 16.064 16.064 16.064s16.064-7.2 16.064-16.064v-206.88z" />
<glyph unicode="&#xe91a;" glyph-name="wallet" d="M576 256c-35.328 0-64 28.672-64 64v64c0 35.36 28.672 64 64 64h384v-192h-384zM624 397.344c-26.496 0-48-21.504-48-48 0-26.528 21.504-48 48-48 26.528 0 48 21.472 48 48 0 26.496-21.472 48-48 48zM480 384v-64c0-52.992 43.008-96 96-96h320v-128c0-52.992-42.976-96-96-96h-672c-52.992 0-96 43.008-96 96v608c0 53.024 43.008 96 96 96h308.224l-75.168-31.328h-249.024c-26.496 0-48-21.504-48-48 0-26.528 21.504-48 48-48h783.968v-192.672h-320c-52.992 0-96-42.976-96-96zM160.032 608h-64v-64h32v32h32v32zM160.032 512h-64v-64h33.312l-1.312 32 32-0.672v32.672zM160.032 416h-64v-64h32.672l-0.672 32h32v32zM160.032 320h-64v-64h32.672l-0.672 32 32-0.672v32.672zM160.032 224h-64v-64h32v32h32v32zM160.032 128h-64v-64h32.672l-0.672 31.328h32v32.672zM288.032 705.984l376 158.016 72-158.016h-448zM724.672 800h75.328c28.032 0 52.992-12.192 70.56-31.328h-130.592l-15.296 31.328z" />
<glyph unicode="&#xe91b;" glyph-name="location" d="M512 960c-176.732 0-320-143.268-320-320 0-320 320-704 320-704s320 384 320 704c0 176.732-143.27 320-320 320zM512 448c-106.040 0-192 85.96-192 192s85.96 192 192 192 192-85.96 192-192-85.96-192-192-192z" />
<glyph unicode="&#xe91c;" glyph-name="users" horiz-adv-x="1152" d="M768 189.388v52.78c70.498 39.728 128 138.772 128 237.832 0 159.058 0 288-192 288s-192-128.942-192-288c0-99.060 57.502-198.104 128-237.832v-52.78c-217.102-17.748-384-124.42-384-253.388h896c0 128.968-166.898 235.64-384 253.388zM327.196 164.672c55.31 36.15 124.080 63.636 199.788 80.414-15.054 17.784-28.708 37.622-40.492 59.020-30.414 55.234-46.492 116.058-46.492 175.894 0 86.042 0 167.31 30.6 233.762 29.706 64.504 83.128 104.496 159.222 119.488-16.914 76.48-61.94 126.75-181.822 126.75-192 0-192-128.942-192-288 0-99.060 57.502-198.104 128-237.832v-52.78c-217.102-17.748-384-124.42-384-253.388h279.006c14.518 12.91 30.596 25.172 48.19 36.672z" />
<glyph unicode="&#xe91d;" glyph-name="cog" d="M933.79 349.75c-53.726 93.054-21.416 212.304 72.152 266.488l-100.626 174.292c-28.75-16.854-62.176-26.518-97.846-26.518-107.536 0-194.708 87.746-194.708 195.99h-201.258c0.266-33.41-8.074-67.282-25.958-98.252-53.724-93.056-173.156-124.702-266.862-70.758l-100.624-174.292c28.97-16.472 54.050-40.588 71.886-71.478 53.638-92.908 21.512-211.92-71.708-266.224l100.626-174.292c28.65 16.696 61.916 26.254 97.4 26.254 107.196 0 194.144-87.192 194.7-194.958h201.254c-0.086 33.074 8.272 66.57 25.966 97.218 53.636 92.906 172.776 124.594 266.414 71.012l100.626 174.29c-28.78 16.466-53.692 40.498-71.434 71.228zM512 240.668c-114.508 0-207.336 92.824-207.336 207.334 0 114.508 92.826 207.334 207.336 207.334 114.508 0 207.332-92.826 207.332-207.334-0.002-114.51-92.824-207.334-207.332-207.334z" />
</font></defs></svg>